SSID 001
Hidden Network : Yes/No
BSSID

Security Type  : None
========================
Proxy Type : None

-----------------------------
SSID 002
Hidden Network : Yes/No
BSSID

Security Type  : WPA2

Password : _______________

========================
Proxy Type :  Manual Proxy
> Proxy Server*
> Proxy Server Port
> Exclution List
-----------------------------
SSID 003
Hidden Network : Yes/No
 
Security Type  : EAP/TLS

Authentication 
> Indentity
> Anonymous Indentity
> User name
> Password
> Indentity Certificate
> Root Certificate

========================
Proxy Type :  Proxy Auto
> Proxy URL*
  
-----------------------------
SSID 004
Hidden Network : Yes/No
//BSSID

Security Type  : EAP/TLS - NDES

//Authentication 
> //Indentity
> //Anonymous Indentity
> //User name
> //Password
-----------------------------
