<svg xmlns="http://www.w3.org/2000/svg" width="15" height="14.598" viewBox="0 0 15 14.598">
    <defs>
        <style>
            .cls-1{fill:#3993ba}
        </style>
    </defs>
    <g id="Icon-_restart" data-name="Icon- restart" transform="translate(14 12.81)">
        <path id="Path_336" d="M12.8 1.988A7.475 7.475 0 0 0 9.914.19v2.262a5.353 5.353 0 0 1 1.414 1.007 5.417 5.417 0 1 1-7.66 0c.005-.006.022-.017.03-.026l1.253 1.249L4.943.715.978.709l1.246 1.246a.125.125 0 0 1-.029.033 7.5 7.5 0 1 0 10.609 0z" class="cls-1" data-name="Path 336" transform="translate(-14 -13)"/>
    </g>
</svg>
